{
  "extends": ["tslint:recommended", "tslint-react", "tslint-config-prettier"],
  "rules" : {
    "object-literal-sort-keys": false,
    "ordered-imports": false
  },
  "linterOptions": {
    "exclude": [
      "config/**/*.js",
      "node_modules/**/*.ts",
      "coverage/lcov-report/*.js"
    ]
  }
}
